﻿<Cube xmlns:xsd="http://www.w3.org/2001/XMLSchema" xmlns:xsi="http://www.w3.org/2001/XMLSchema-instance" xmlns:ddl2="http://schemas.microsoft.com/analysisservices/2003/engine/2" xmlns:ddl2_2="http://schemas.microsoft.com/analysisservices/2003/engine/2/2" xmlns:ddl100_100="http://schemas.microsoft.com/analysisservices/2008/engine/100/100" xmlns:ddl200="http://schemas.microsoft.com/analysisservices/2010/engine/200" xmlns:ddl200_200="http://schemas.microsoft.com/analysisservices/2010/engine/200/200" xmlns:ddl300="http://schemas.microsoft.com/analysisservices/2011/engine/300" xmlns:ddl300_300="http://schemas.microsoft.com/analysisservices/2011/engine/300/300" xmlns:ddl400="http://schemas.microsoft.com/analysisservices/2012/engine/400" xmlns:ddl400_400="http://schemas.microsoft.com/analysisservices/2012/engine/400/400" xmlns:ddl500="http://schemas.microsoft.com/analysisservices/2013/engine/500" xmlns:ddl500_500="http://schemas.microsoft.com/analysisservices/2013/engine/500/500" xmlns:dwd="http://schemas.microsoft.com/DataWarehouse/Designer/1.0" dwd:design-time-name="3834cfd6-3f45-488b-9a34-da7574c387fe" xmlns="http://schemas.microsoft.com/analysisservices/2003/engine">
  <ID>CUBE_DS2</ID>
  <Name>CUBE_DS2</Name>
  <CreatedTimestamp>0001-01-01T00:00:00Z</CreatedTimestamp>
  <LastSchemaUpdate>0001-01-01T00:00:00Z</LastSchemaUpdate>
  <Annotations>
    <Annotation>
      <Name>http://schemas.microsoft.com/DataWarehouse/Designer/1.0:DiagramLayout</Name>
      <Value>
        <dds xmlns="">
          <diagram fontclsid="{0BE35203-8F91-11CE-9DE3-00AA004BB851}" mouseiconclsid="{0BE35204-8F91-11CE-9DE3-00AA004BB851}" defaultlayout="MSDDS.Rectilinear" defaultlineroute="MSDDS.Rectilinear" version="7" nextobject="34" scale="100" pagebreakanchorx="0" pagebreakanchory="0" pagebreaksizex="0" pagebreaksizey="0" scrollleft="-5219" scrolltop="-559" gridx="150" gridy="150" marginx="5000" marginy="5000" zoom="75" x="28258" y="11695" backcolor="2434342" defaultpersistence="2" PrintPageNumbersMode="3" PrintMarginTop="0" PrintMarginBottom="635" PrintMarginLeft="0" PrintMarginRight="0" marqueeselectionmode="0" mousepointer="0" snaptogrid="0" autotypeannotation="1" showscrollbars="1" viewpagebreaks="0" donotforceconnectorsbehindshapes="1" backpictureclsid="{00000000-0000-0000-0000-000000000000}">
            <font>
              <ddsxmlobjectstreamwrapper binary="01000000900144420100065461686f6d61" />
            </font>
            <mouseicon>
              <ddsxmlobjectstreamwrapper binary="6c74000000000000" />
            </mouseicon>
          </diagram>
          <layoutmanager>
            <ddsxmlobj />
          </layoutmanager>
          <ddscontrol controlprogid="DdsShapes.DdsObjectManagedBridge.3" tooltip="ORDERLINES" left="5727" top="5972" logicalid="17" controlid="1" masterid="0" hint1="0" hint2="0" width="4868" height="5000" noresize="0" nomove="0" nodefaultattachpoints="0" autodrag="1" usedefaultiddshape="1" selectable="1" showselectionhandles="1" allownudging="1" isannotation="0" dontautolayout="0" groupcollapsed="0" tabstop="1" visible="1" snaptogrid="0">
            <control>
              <ddsxmlobjectstreaminitwrapper binary="000c00000413000088130000" />
            </control>
            <layoutobject>
              <ddsxmlobj>
                <property name="LogicalObject" value="fact_ORDERLINES" vartype="8" />
              </ddsxmlobj>
            </layoutobject>
            <shape groupshapeid="0" groupnode="0" />
          </ddscontrol>
          <ddscontrol controlprogid="DdsShapes.DdsObjectManagedBridge.3" tooltip="CALENDAR" left="2371" top="15855" logicalid="18" controlid="2" masterid="0" hint1="0" hint2="0" width="4551" height="5000" noresize="0" nomove="0" nodefaultattachpoints="0" autodrag="1" usedefaultiddshape="1" selectable="1" showselectionhandles="1" allownudging="1" isannotation="0" dontautolayout="0" groupcollapsed="0" tabstop="1" visible="1" snaptogrid="0">
            <control>
              <ddsxmlobjectstreaminitwrapper binary="000c0000c711000088130000" />
            </control>
            <layoutobject>
              <ddsxmlobj>
                <property name="LogicalObject" value="dim_CALENDAR" vartype="8" />
              </ddsxmlobj>
            </layoutobject>
            <shape groupshapeid="0" groupnode="0" />
          </ddscontrol>
          <ddscontrol controlprogid="DdsShapes.DdsObjectManagedBridge.3" tooltip="GENDER" left="12995" top="3489" logicalid="19" controlid="3" masterid="0" hint1="0" hint2="0" width="3307" height="2725" noresize="0" nomove="0" nodefaultattachpoints="0" autodrag="1" usedefaultiddshape="1" selectable="1" showselectionhandles="1" allownudging="1" isannotation="0" dontautolayout="0" groupcollapsed="0" tabstop="1" visible="1" snaptogrid="0">
            <control>
              <ddsxmlobjectstreaminitwrapper binary="000c0000eb0c0000a50a0000" />
            </control>
            <layoutobject>
              <ddsxmlobj>
                <property name="LogicalObject" value="dim_GENDER" vartype="8" />
              </ddsxmlobj>
            </layoutobject>
            <shape groupshapeid="0" groupnode="0" />
          </ddscontrol>
          <ddscontrol controlprogid="DdsShapes.DdsObjectManagedBridge.3" tooltip="INCOME" left="20" top="6686" logicalid="20" controlid="4" masterid="0" hint1="0" hint2="0" width="3307" height="3572" noresize="0" nomove="0" nodefaultattachpoints="0" autodrag="1" usedefaultiddshape="1" selectable="1" showselectionhandles="1" allownudging="1" isannotation="0" dontautolayout="0" groupcollapsed="0" tabstop="1" visible="1" snaptogrid="0">
            <control>
              <ddsxmlobjectstreaminitwrapper binary="000c0000eb0c0000f40d0000" />
            </control>
            <layoutobject>
              <ddsxmlobj>
                <property name="LogicalObject" value="dim_INCOME" vartype="8" />
              </ddsxmlobj>
            </layoutobject>
            <shape groupshapeid="0" groupnode="0" />
          </ddscontrol>
          <ddscontrol controlprogid="DdsShapes.DdsObjectManagedBridge.3" tooltip="PRODUCT" left="12995" top="8614" logicalid="21" controlid="5" masterid="0" hint1="0" hint2="0" width="4419" height="4842" noresize="0" nomove="0" nodefaultattachpoints="0" autodrag="1" usedefaultiddshape="1" selectable="1" showselectionhandles="1" allownudging="1" isannotation="0" dontautolayout="0" groupcollapsed="0" tabstop="1" visible="1" snaptogrid="0">
            <control>
              <ddsxmlobjectstreaminitwrapper binary="000c000043110000ea120000" />
            </control>
            <layoutobject>
              <ddsxmlobj>
                <property name="LogicalObject" value="dim_PRODUCT" vartype="8" />
              </ddsxmlobj>
            </layoutobject>
            <shape groupshapeid="0" groupnode="0" />
          </ddscontrol>
          <ddscontrol controlprogid="DdsShapes.DdsObjectManagedBridge.3" tooltip="AGEGROUPS" left="7288" top="0" logicalid="22" controlid="6" masterid="0" hint1="0" hint2="0" width="3307" height="3572" noresize="0" nomove="0" nodefaultattachpoints="0" autodrag="1" usedefaultiddshape="1" selectable="1" showselectionhandles="1" allownudging="1" isannotation="0" dontautolayout="0" groupcollapsed="0" tabstop="1" visible="1" snaptogrid="0">
            <control>
              <ddsxmlobjectstreaminitwrapper binary="000c0000eb0c0000f40d0000" />
            </control>
            <layoutobject>
              <ddsxmlobj>
                <property name="LogicalObject" value="dim_AGEGROUPS" vartype="8" />
              </ddsxmlobj>
            </layoutobject>
            <shape groupshapeid="0" groupnode="0" />
          </ddscontrol>
          <ddscontrol controlprogid="DdsShapes.DdsObjectManagedBridge.3" tooltip="GEOGRAPHY" left="893" top="423" logicalid="23" controlid="7" masterid="0" hint1="0" hint2="0" width="3995" height="3149" noresize="0" nomove="0" nodefaultattachpoints="0" autodrag="1" usedefaultiddshape="1" selectable="1" showselectionhandles="1" allownudging="1" isannotation="0" dontautolayout="0" groupcollapsed="0" tabstop="1" visible="1" snaptogrid="0">
            <control>
              <ddsxmlobjectstreaminitwrapper binary="000c00009b0f00004d0c0000" />
            </control>
            <layoutobject>
              <ddsxmlobj>
                <property name="LogicalObject" value="dim_GEOGRAPHY" vartype="8" />
              </ddsxmlobj>
            </layoutobject>
            <shape groupshapeid="0" groupnode="0" />
          </ddscontrol>
          <ddscontrol controlprogid="DdsShapes.DdsObjectManagedBridge.3" tooltip="CUSTOMER" left="9322" top="15855" logicalid="24" controlid="8" masterid="0" hint1="0" hint2="0" width="4630" height="5000" noresize="0" nomove="0" nodefaultattachpoints="0" autodrag="1" usedefaultiddshape="1" selectable="1" showselectionhandles="1" allownudging="1" isannotation="0" dontautolayout="0" groupcollapsed="0" tabstop="1" visible="1" snaptogrid="0">
            <control>
              <ddsxmlobjectstreaminitwrapper binary="000c00001612000088130000" />
            </control>
            <layoutobject>
              <ddsxmlobj>
                <property name="LogicalObject" value="dim_CUSTOMER" vartype="8" />
              </ddsxmlobj>
            </layoutobject>
            <shape groupshapeid="0" groupnode="0" />
          </ddscontrol>
          <ddscontrol controlprogid="MSDDS.Polyline" left="3027" top="8073" logicalid="25" controlid="9" masterid="0" hint1="0" hint2="0" width="3000" height="799" noresize="0" nomove="0" nodefaultattachpoints="1" autodrag="0" usedefaultiddshape="0" selectable="1" showselectionhandles="0" allownudging="1" isannotation="0" dontautolayout="0" groupcollapsed="0" tabstop="1" visible="1" snaptogrid="0">
            <control>
              <ddsxmlobj>
                <polyline endtypedst="6" endtypesrc="3" usercolor="15856113" linestyle="0" linerender="1" customendtypedstid="0" customendtypesrcid="0" adornsvisible="1" />
              </ddsxmlobj>
            </control>
            <layoutobject>
              <ddsxmlobj>
                <property name="LogicalObject" value="dataSet.Relations[FK_orderlines_income]" vartype="8" />
                <property name="Virtual" value="0" vartype="11" />
                <property name="VisibleAP" value="0" vartype="3" />
              </ddsxmlobj>
            </layoutobject>
            <connector lineroutestyle="MSDDS.Rectilinear" sourceid="4" destid="1" sourceattachpoint="17" destattachpoint="26" segmenteditmode="0" bendpointeditmode="0" bendpointvisibility="0" relatedid="0" virtual="0">
              <point x="3327" y="8472" />
              <point x="5727" y="8472" />
            </connector>
          </ddscontrol>
          <ddscontrol controlprogid="MSDDS.Polyline" left="4247" top="10672" logicalid="26" controlid="10" masterid="0" hint1="0" hint2="0" width="3114" height="5683" noresize="0" nomove="0" nodefaultattachpoints="1" autodrag="0" usedefaultiddshape="0" selectable="1" showselectionhandles="0" allownudging="1" isannotation="0" dontautolayout="0" groupcollapsed="0" tabstop="1" visible="1" snaptogrid="0">
            <control>
              <ddsxmlobj>
                <polyline endtypedst="6" endtypesrc="3" usercolor="15856113" linestyle="0" linerender="1" customendtypedstid="0" customendtypesrcid="0" adornsvisible="1" />
              </ddsxmlobj>
            </control>
            <layoutobject>
              <ddsxmlobj>
                <property name="LogicalObject" value="dataSet.Relations[FK_orderlines_calendar]" vartype="8" />
                <property name="Virtual" value="0" vartype="11" />
                <property name="VisibleAP" value="0" vartype="3" />
              </ddsxmlobj>
            </layoutobject>
            <connector lineroutestyle="MSDDS.Rectilinear" sourceid="2" destid="1" sourceattachpoint="6" destattachpoint="5" segmenteditmode="0" bendpointeditmode="0" bendpointvisibility="0" relatedid="0" virtual="0">
              <point x="4646" y="15855" />
              <point x="4646" y="13414" />
              <point x="7061" y="13414" />
              <point x="7061" y="10972" />
            </connector>
          </ddscontrol>
          <ddscontrol controlprogid="MSDDS.Polyline" left="10295" top="8722" logicalid="27" controlid="11" masterid="0" hint1="0" hint2="0" width="3000" height="2713" noresize="0" nomove="0" nodefaultattachpoints="1" autodrag="0" usedefaultiddshape="0" selectable="1" showselectionhandles="0" allownudging="1" isannotation="0" dontautolayout="0" groupcollapsed="0" tabstop="1" visible="1" snaptogrid="0">
            <control>
              <ddsxmlobj>
                <polyline endtypedst="6" endtypesrc="3" usercolor="15856113" linestyle="0" linerender="1" customendtypedstid="0" customendtypesrcid="0" adornsvisible="1" />
              </ddsxmlobj>
            </control>
            <layoutobject>
              <ddsxmlobj>
                <property name="LogicalObject" value="dataSet.Relations[FK_orderlines_product]" vartype="8" />
                <property name="Virtual" value="0" vartype="11" />
                <property name="VisibleAP" value="0" vartype="3" />
              </ddsxmlobj>
            </layoutobject>
            <connector lineroutestyle="MSDDS.Rectilinear" sourceid="5" destid="1" sourceattachpoint="22" destattachpoint="29" segmenteditmode="0" bendpointeditmode="0" bendpointvisibility="0" relatedid="0" virtual="0">
              <point x="12995" y="11035" />
              <point x="11795" y="11035" />
              <point x="11795" y="9022" />
              <point x="10595" y="9022" />
            </connector>
          </ddscontrol>
          <ddscontrol controlprogid="MSDDS.Polyline" left="8411" top="3073" logicalid="28" controlid="12" masterid="0" hint1="0" hint2="0" width="930" height="3199" noresize="0" nomove="0" nodefaultattachpoints="1" autodrag="0" usedefaultiddshape="0" selectable="1" showselectionhandles="0" allownudging="1" isannotation="0" dontautolayout="0" groupcollapsed="0" tabstop="1" visible="1" snaptogrid="0">
            <control>
              <ddsxmlobj>
                <polyline endtypedst="6" endtypesrc="3" usercolor="15856113" linestyle="0" linerender="1" customendtypedstid="0" customendtypesrcid="0" adornsvisible="1" />
              </ddsxmlobj>
            </control>
            <layoutobject>
              <ddsxmlobj>
                <property name="LogicalObject" value="dataSet.Relations[FK_orderlines_agegroups]" vartype="8" />
                <property name="Virtual" value="0" vartype="11" />
                <property name="VisibleAP" value="0" vartype="3" />
              </ddsxmlobj>
            </layoutobject>
            <connector lineroutestyle="MSDDS.Rectilinear" sourceid="6" destid="1" sourceattachpoint="5" destattachpoint="10" segmenteditmode="0" bendpointeditmode="0" bendpointvisibility="0" relatedid="0" virtual="0">
              <point x="8941" y="3572" />
              <point x="8941" y="4772" />
              <point x="8711" y="4772" />
              <point x="8711" y="5972" />
            </connector>
          </ddscontrol>
          <ddscontrol controlprogid="MSDDS.Polyline" left="8411" top="10672" logicalid="29" controlid="13" masterid="0" hint1="0" hint2="0" width="3626" height="5683" noresize="0" nomove="0" nodefaultattachpoints="1" autodrag="0" usedefaultiddshape="0" selectable="1" showselectionhandles="0" allownudging="1" isannotation="0" dontautolayout="0" groupcollapsed="0" tabstop="1" visible="1" snaptogrid="0">
            <control>
              <ddsxmlobj>
                <polyline endtypedst="6" endtypesrc="3" usercolor="15856113" linestyle="0" linerender="1" customendtypedstid="0" customendtypesrcid="0" adornsvisible="1" />
              </ddsxmlobj>
            </control>
            <layoutobject>
              <ddsxmlobj>
                <property name="LogicalObject" value="dataSet.Relations[FK_orderlines_customer]" vartype="8" />
                <property name="Virtual" value="0" vartype="11" />
                <property name="VisibleAP" value="0" vartype="3" />
              </ddsxmlobj>
            </layoutobject>
            <connector lineroutestyle="MSDDS.Rectilinear" sourceid="8" destid="1" sourceattachpoint="8" destattachpoint="11" segmenteditmode="0" bendpointeditmode="0" bendpointvisibility="0" relatedid="0" virtual="0">
              <point x="11637" y="15855" />
              <point x="11637" y="13414" />
              <point x="8711" y="13414" />
              <point x="8711" y="10972" />
            </connector>
          </ddscontrol>
          <ddscontrol controlprogid="MSDDS.Polyline" left="10295" top="4452" logicalid="30" controlid="14" masterid="0" hint1="0" hint2="0" width="3000" height="3220" noresize="0" nomove="0" nodefaultattachpoints="1" autodrag="0" usedefaultiddshape="0" selectable="1" showselectionhandles="0" allownudging="1" isannotation="0" dontautolayout="0" groupcollapsed="0" tabstop="1" visible="1" snaptogrid="0">
            <control>
              <ddsxmlobj>
                <polyline endtypedst="6" endtypesrc="3" usercolor="15856113" linestyle="0" linerender="1" customendtypedstid="0" customendtypesrcid="0" adornsvisible="1" />
              </ddsxmlobj>
            </control>
            <layoutobject>
              <ddsxmlobj>
                <property name="LogicalObject" value="dataSet.Relations[FK_orderlines_gender]" vartype="8" />
                <property name="Virtual" value="0" vartype="11" />
                <property name="VisibleAP" value="0" vartype="3" />
              </ddsxmlobj>
            </layoutobject>
            <connector lineroutestyle="MSDDS.Rectilinear" sourceid="3" destid="1" sourceattachpoint="14" destattachpoint="23" segmenteditmode="0" bendpointeditmode="0" bendpointvisibility="0" relatedid="0" virtual="0">
              <point x="12995" y="4851" />
              <point x="11795" y="4851" />
              <point x="11795" y="7372" />
              <point x="10595" y="7372" />
            </connector>
          </ddscontrol>
          <ddscontrol controlprogid="MSDDS.Polyline" left="2491" top="3073" logicalid="31" controlid="15" masterid="0" hint1="0" hint2="0" width="4870" height="3199" noresize="0" nomove="0" nodefaultattachpoints="1" autodrag="0" usedefaultiddshape="0" selectable="1" showselectionhandles="0" allownudging="1" isannotation="0" dontautolayout="0" groupcollapsed="0" tabstop="1" visible="1" snaptogrid="0">
            <control>
              <ddsxmlobj>
                <polyline endtypedst="6" endtypesrc="3" usercolor="15856113" linestyle="0" linerender="1" customendtypedstid="0" customendtypesrcid="0" adornsvisible="1" />
              </ddsxmlobj>
            </control>
            <layoutobject>
              <ddsxmlobj>
                <property name="LogicalObject" value="dataSet.Relations[FK_orderlines_geography]" vartype="8" />
                <property name="Virtual" value="0" vartype="11" />
                <property name="VisibleAP" value="0" vartype="3" />
              </ddsxmlobj>
            </layoutobject>
            <connector lineroutestyle="MSDDS.Rectilinear" sourceid="7" destid="1" sourceattachpoint="7" destattachpoint="4" segmenteditmode="0" bendpointeditmode="0" bendpointvisibility="0" relatedid="0" virtual="0">
              <point x="2890" y="3572" />
              <point x="2890" y="4772" />
              <point x="7061" y="4772" />
              <point x="7061" y="5972" />
            </connector>
          </ddscontrol>
          <ddscontrol controlprogid="MSDDS.Polyline" left="-407" top="-877" logicalid="32" controlid="16" masterid="0" hint1="0" hint2="0" width="2497" height="2724" noresize="0" nomove="0" nodefaultattachpoints="1" autodrag="0" usedefaultiddshape="0" selectable="1" showselectionhandles="0" allownudging="1" isannotation="0" dontautolayout="0" groupcollapsed="0" tabstop="1" visible="1" snaptogrid="0">
            <control>
              <ddsxmlobj>
                <polyline endtypedst="6" endtypesrc="3" usercolor="15856113" linestyle="0" linerender="1" customendtypedstid="0" customendtypesrcid="0" adornsvisible="1" />
              </ddsxmlobj>
            </control>
            <layoutobject>
              <ddsxmlobj>
                <property name="LogicalObject" value="dataSet.Relations[FK_geo_geography]" vartype="8" />
                <property name="Virtual" value="0" vartype="11" />
                <property name="VisibleAP" value="0" vartype="3" />
              </ddsxmlobj>
            </layoutobject>
            <connector lineroutestyle="MSDDS.Rectilinear" sourceid="7" destid="7" sourceattachpoint="16" destattachpoint="2" segmenteditmode="0" bendpointeditmode="0" bendpointvisibility="0" relatedid="0" virtual="0">
              <point x="893" y="1447" />
              <point x="-107" y="1447" />
              <point x="-107" y="-577" />
              <point x="1790" y="-577" />
              <point x="1790" y="423" />
            </connector>
          </ddscontrol>
        </dds>
      </Value>
    </Annotation>
    <Annotation>
      <Name>http://schemas.microsoft.com/DataWarehouse/Designer/1.0:ShowFriendlyNames</Name>
      <Value>true</Value>
    </Annotation>
    <Annotation>
      <Name>http://schemas.microsoft.com/DataWarehouse/Designer/1.0:ShowRelationshipNames</Name>
      <Value>false</Value>
    </Annotation>
    <Annotation>
      <Name>http://schemas.microsoft.com/DataWarehouse/Designer/1.0:UseDiagramDefaultLayout</Name>
      <Value>true</Value>
    </Annotation>
    <Annotation>
      <Name>http://schemas.microsoft.com/DataWarehouse/Designer/1.0:DiagramViewPortLeft</Name>
      <Value>-5219</Value>
    </Annotation>
    <Annotation>
      <Name>http://schemas.microsoft.com/DataWarehouse/Designer/1.0:DiagramViewPortTop</Name>
      <Value>-559</Value>
    </Annotation>
    <Annotation>
      <Name>http://schemas.microsoft.com/DataWarehouse/Designer/1.0:DiagramBoundingLeft</Name>
      <Value>20</Value>
    </Annotation>
    <Annotation>
      <Name>http://schemas.microsoft.com/DataWarehouse/Designer/1.0:DiagramBoundingTop</Name>
      <Value>0</Value>
    </Annotation>
    <Annotation>
      <Name>http://schemas.microsoft.com/DataWarehouse/Designer/1.0:DiagramZoom</Name>
      <Value>75</Value>
    </Annotation>
  </Annotations>
  <LastProcessed>0001-01-01T00:00:00Z</LastProcessed>
  <State>Unprocessed</State>
  <Dimensions>
    <Dimension dwd:design-time-name="f767f3bb-07af-4cd2-8ba0-57fd1d618bb9">
      <ID>INCOME</ID>
      <Name>INCOME</Name>
      <DimensionID>INCOME</DimensionID>
      <Attributes>
        <Attribute dwd:design-time-name="c5f26e40-7448-4615-84cb-54cff9127040">
          <AttributeID>INCOME ID</AttributeID>
        </Attribute>
      </Attributes>
    </Dimension>
    <Dimension dwd:design-time-name="5c311a49-24c7-403c-aca8-4cca0f8d32c9">
      <ID>CALENDAR</ID>
      <Name>CALENDAR</Name>
      <DimensionID>CALENDAR</DimensionID>
      <Attributes>
        <Attribute dwd:design-time-name="0b598b20-0866-45d4-9808-7e59476a514a">
          <AttributeID>DATE ID</AttributeID>
        </Attribute>
        <Attribute dwd:design-time-name="8e81a0e0-51aa-41af-b808-dda22281e020">
          <AttributeID>MONTH</AttributeID>
        </Attribute>
        <Attribute dwd:design-time-name="722a85ae-10e6-4471-986f-7a08089b855f">
          <AttributeID>MONTH 1</AttributeID>
        </Attribute>
        <Attribute dwd:design-time-name="a778d1c1-7d2a-4e03-b802-76255aefbe62">
          <AttributeID>WEEK OF MONTH</AttributeID>
        </Attribute>
        <Attribute dwd:design-time-name="32e7a182-aa98-43af-bdfe-8bd83343cfba">
          <AttributeID>WEEK OF MONTH 1</AttributeID>
        </Attribute>
        <Attribute dwd:design-time-name="fad81091-a65e-49b0-b65f-cfea211fb868">
          <AttributeID>QUATER</AttributeID>
        </Attribute>
        <Attribute dwd:design-time-name="0e3977e0-a563-4007-a5b6-4085a02a8e63">
          <AttributeID>QUATER 1</AttributeID>
        </Attribute>
        <Attribute dwd:design-time-name="4204682a-4c84-4ff2-9464-c7beac289024">
          <AttributeID>YEAR</AttributeID>
        </Attribute>
        <Attribute dwd:design-time-name="8d07d463-eb5b-4c2f-a2ea-a3fa7b7ef02e">
          <AttributeID>YEAR 1</AttributeID>
        </Attribute>
      </Attributes>
      <Hierarchies>
        <Hierarchy dwd:design-time-name="52b8d88f-0ac4-4270-b1b5-c6bce949aaf4">
          <HierarchyID>Hierarchy</HierarchyID>
        </Hierarchy>
        <Hierarchy dwd:design-time-name="1fc90a13-a524-4e32-8e8f-e9b88e4b61fe">
          <HierarchyID>Hierarchy 1</HierarchyID>
        </Hierarchy>
      </Hierarchies>
    </Dimension>
    <Dimension dwd:design-time-name="b3a2c3c1-2467-4a36-8baf-e6131511292d">
      <ID>PRODUCT</ID>
      <Name>PRODUCT</Name>
      <DimensionID>PRODUCT</DimensionID>
      <Attributes>
        <Attribute dwd:design-time-name="4154ffd7-08a2-4661-9048-703c2982d0cd">
          <AttributeID>PRODUCT ID</AttributeID>
        </Attribute>
        <Attribute dwd:design-time-name="e3b37581-0c08-4fbb-9f73-8b355c965517">
          <AttributeID>CATEGORY</AttributeID>
        </Attribute>
        <Attribute dwd:design-time-name="99194af5-2855-41bb-87e4-2f92e6ff0d04">
          <AttributeID>ACTOR</AttributeID>
        </Attribute>
        <Attribute dwd:design-time-name="df1e9f1e-6f4b-48d9-b817-6688042cc7f3">
          <AttributeID>PRICE</AttributeID>
        </Attribute>
        <Attribute dwd:design-time-name="c4d2d8c1-55c0-4ce5-8543-1393b260085c">
          <AttributeID>TITLE</AttributeID>
        </Attribute>
      </Attributes>
      <Hierarchies>
        <Hierarchy dwd:design-time-name="9ee7fe01-3168-4448-93cd-d612920b2093">
          <HierarchyID>Hierarchy</HierarchyID>
        </Hierarchy>
      </Hierarchies>
    </Dimension>
    <Dimension dwd:design-time-name="3d655a8f-e57d-4126-8b0a-886b2594d080">
      <ID>AGEGROUPS</ID>
      <Name>AGEGROUPS</Name>
      <DimensionID>AGEGROUPS</DimensionID>
      <Attributes>
        <Attribute dwd:design-time-name="8fd88b81-955c-42a8-9746-545e870be09f">
          <AttributeID>AGEGROUP ID</AttributeID>
        </Attribute>
      </Attributes>
    </Dimension>
    <Dimension dwd:design-time-name="353e1706-10d6-4372-888b-041080b424c7">
      <ID>CUSTOMER</ID>
      <Name>CUSTOMER</Name>
      <DimensionID>CUSTOMER</DimensionID>
      <Attributes>
        <Attribute dwd:design-time-name="180a1d5d-4c5b-45a4-846f-3b959aeed9fe">
          <AttributeID>CUSTOMER ID</AttributeID>
        </Attribute>
        <Attribute dwd:design-time-name="19ea310b-854d-41e3-947b-2ef3dac0689e">
          <AttributeID>AGE</AttributeID>
        </Attribute>
        <Attribute dwd:design-time-name="b5d44258-cddd-4f7d-b8d1-8805c8be9370">
          <AttributeID>REGION</AttributeID>
        </Attribute>
        <Attribute dwd:design-time-name="47612b45-a8e6-4a91-9fb3-9ccada95e006">
          <AttributeID>COUNTRY</AttributeID>
        </Attribute>
        <Attribute dwd:design-time-name="70ca12b0-6955-44e7-b881-c00919879efe">
          <AttributeID>STATE</AttributeID>
        </Attribute>
        <Attribute dwd:design-time-name="d051dcde-9727-49b4-90d5-5e8aaf3fba37">
          <AttributeID>CITY</AttributeID>
        </Attribute>
      </Attributes>
      <Hierarchies>
        <Hierarchy dwd:design-time-name="82a1ba89-611b-45fb-bd86-d01bf810a5bc">
          <HierarchyID>Hierarchy</HierarchyID>
        </Hierarchy>
      </Hierarchies>
    </Dimension>
    <Dimension dwd:design-time-name="4dbc26f5-bce8-4afd-b6a5-cc16562a6b41">
      <ID>GENDER</ID>
      <Name>GENDER</Name>
      <DimensionID>GENDER</DimensionID>
      <Attributes>
        <Attribute dwd:design-time-name="4ccf260e-23d4-4882-b14e-40011b7d3924">
          <AttributeID>GENDER ID</AttributeID>
        </Attribute>
      </Attributes>
    </Dimension>
    <Dimension dwd:design-time-name="0ac0e934-f878-4d7c-9aeb-373d531ff5d6">
      <ID>GEOGRAPHY</ID>
      <Name>GEOGRAPHY</Name>
      <DimensionID>GEOGRAPHY</DimensionID>
      <Attributes>
        <Attribute dwd:design-time-name="5fcf1243-7e4c-4f13-965c-19b6ebcba380">
          <AttributeID>GEOGRAPHY ID</AttributeID>
        </Attribute>
        <Attribute dwd:design-time-name="9335ff7e-e400-4ae2-a448-413a592855e6">
          <AttributeID>GEO PARENT ID</AttributeID>
        </Attribute>
      </Attributes>
    </Dimension>
  </Dimensions>
  <MeasureGroups>
    <MeasureGroup dwd:design-time-name="5c5d10dc-12b6-4458-bd1b-180fe4e0ab1a">
      <ID>ORDERLINES</ID>
      <Name>ORDERLINES</Name>
      <CreatedTimestamp>0001-01-01T00:00:00Z</CreatedTimestamp>
      <LastSchemaUpdate>0001-01-01T00:00:00Z</LastSchemaUpdate>
      <LastProcessed>0001-01-01T00:00:00Z</LastProcessed>
      <State>Unprocessed</State>
      <Measures>
        <Measure dwd:design-time-name="f61805fd-b602-4936-af69-933b69f59e3e">
          <ID>QUANTITY</ID>
          <Name>QUANTITY</Name>
          <Source dwd:design-time-name="2009134b-f6da-4f8e-9fdb-3515b191a40b">
            <DataType>Integer</DataType>
            <Source xsi:type="ColumnBinding" dwd:design-time-name="96bda5ca-e039-408f-b26c-375e671a498a">
              <TableID>fact_ORDERLINES</TableID>
              <ColumnID>QUANTITY</ColumnID>
            </Source>
          </Source>
        </Measure>
        <Measure dwd:design-time-name="b8163722-e289-4c58-a3aa-6e1baed65129">
          <ID>NETAMOUNT</ID>
          <Name>NETAMOUNT</Name>
          <Source dwd:design-time-name="86ffc180-8b0e-48fa-b7d0-e8b036f8ae18">
            <DataType>Double</DataType>
            <Source xsi:type="ColumnBinding" dwd:design-time-name="8726d289-0dff-410a-b0ec-ab3b0e03a27c">
              <TableID>fact_ORDERLINES</TableID>
              <ColumnID>NETAMOUNT</ColumnID>
            </Source>
          </Source>
          <FormatString>$#,##0.00;($#,##0.00)</FormatString>
        </Measure>
        <Measure dwd:design-time-name="954cc414-2cda-41b3-828c-dcce62f1e41a">
          <ID>TAX</ID>
          <Name>TAX</Name>
          <Source dwd:design-time-name="a49b7d74-2c19-4114-b2e1-b6f0ade5d2f6">
            <DataType>Double</DataType>
            <Source xsi:type="ColumnBinding" dwd:design-time-name="31b02d0e-9204-4cc8-81b9-2b8b6a215fbc">
              <TableID>fact_ORDERLINES</TableID>
              <ColumnID>TAX</ColumnID>
            </Source>
          </Source>
          <FormatString>$#,##0.00;($#,##0.00)</FormatString>
        </Measure>
        <Measure dwd:design-time-name="c5a5a61d-ae7c-4fef-95ed-45fb4dbee61a">
          <ID>TOTALAMOUNT</ID>
          <Name>TOTALAMOUNT</Name>
          <Source dwd:design-time-name="c4d66ecd-7104-4d50-bdbc-85b26fdf6bef">
            <DataType>Double</DataType>
            <Source xsi:type="ColumnBinding" dwd:design-time-name="7b9dd6bb-d524-44c5-aca3-8ce907c22c46">
              <TableID>fact_ORDERLINES</TableID>
              <ColumnID>TOTALAMOUNT</ColumnID>
            </Source>
          </Source>
          <FormatString>$#,##0.00;($#,##0.00)</FormatString>
        </Measure>
        <Measure dwd:design-time-name="9af1e789-995d-422a-b818-42e10fd8e19d">
          <ID>ORDERLINES Count</ID>
          <Name>OPERATIONS</Name>
          <AggregateFunction>Count</AggregateFunction>
          <Source dwd:design-time-name="00492c56-6dad-4bc1-9fcd-d3648695eb86">
            <DataType>Integer</DataType>
            <DataSize>4</DataSize>
            <Source xsi:type="RowBinding" dwd:design-time-name="62391afd-1c5e-4493-ab01-a86de119a55f">
              <TableID>fact_ORDERLINES</TableID>
            </Source>
          </Source>
        </Measure>
      </Measures>
      <StorageMode>Molap</StorageMode>
      <ProcessingMode>Regular</ProcessingMode>
      <Dimensions>
        <Dimension xsi:type="RegularMeasureGroupDimension" dwd:design-time-name="18ae4944-fdcd-4a79-830f-2f792768393e">
          <CubeDimensionID>INCOME</CubeDimensionID>
          <Attributes>
            <Attribute dwd:design-time-name="1fe50371-8383-47ff-8b83-8ddf24dfb3ea">
              <AttributeID>INCOME ID</AttributeID>
              <KeyColumns>
                <KeyColumn dwd:design-time-name="daef020a-a0ce-4e28-9f36-7963320db1d0">
                  <DataType>Integer</DataType>
                  <Source xsi:type="ColumnBinding" dwd:design-time-name="ad5a1294-fc04-4994-9367-f87c45ffefa7">
                    <TableID>fact_ORDERLINES</TableID>
                    <ColumnID>INCOME_ID</ColumnID>
                  </Source>
                </KeyColumn>
              </KeyColumns>
              <Type>Granularity</Type>
            </Attribute>
          </Attributes>
        </Dimension>
        <Dimension xsi:type="RegularMeasureGroupDimension" dwd:design-time-name="c5cbbf9f-7d7b-4391-92e3-b0ee704aafa4">
          <CubeDimensionID>PRODUCT</CubeDimensionID>
          <Attributes>
            <Attribute dwd:design-time-name="facfffa1-f668-4a4a-8693-5672bc90239b">
              <AttributeID>PRODUCT ID</AttributeID>
              <KeyColumns>
                <KeyColumn dwd:design-time-name="bba2fb79-daa0-449c-87a2-9a96df8fe5bc">
                  <DataType>Integer</DataType>
                  <Source xsi:type="ColumnBinding" dwd:design-time-name="61c3ef3b-6fd3-42c5-9b28-8b3906b5b1f6">
                    <TableID>fact_ORDERLINES</TableID>
                    <ColumnID>PRODUCT_ID</ColumnID>
                  </Source>
                </KeyColumn>
              </KeyColumns>
              <Type>Granularity</Type>
            </Attribute>
          </Attributes>
        </Dimension>
        <Dimension xsi:type="RegularMeasureGroupDimension" dwd:design-time-name="3299a9d2-80d1-4f01-ae87-d15521a218fe">
          <CubeDimensionID>AGEGROUPS</CubeDimensionID>
          <Attributes>
            <Attribute dwd:design-time-name="85b66a29-9301-4545-9ecd-c43e598dff9c">
              <AttributeID>AGEGROUP ID</AttributeID>
              <KeyColumns>
                <KeyColumn dwd:design-time-name="c7ed2ff8-6e98-4729-9834-806557befec7">
                  <DataType>Integer</DataType>
                  <Source xsi:type="ColumnBinding" dwd:design-time-name="c2875e02-8265-4d60-a1b4-a662cb9c0c5d">
                    <TableID>fact_ORDERLINES</TableID>
                    <ColumnID>AGEGROUP_ID</ColumnID>
                  </Source>
                </KeyColumn>
              </KeyColumns>
              <Type>Granularity</Type>
            </Attribute>
          </Attributes>
        </Dimension>
        <Dimension xsi:type="RegularMeasureGroupDimension" dwd:design-time-name="2471063c-7090-491c-a2ce-8a8f9c4bef01">
          <CubeDimensionID>CUSTOMER</CubeDimensionID>
          <Attributes>
            <Attribute dwd:design-time-name="d70e504d-d4cb-4532-8260-eed74f294618">
              <AttributeID>CUSTOMER ID</AttributeID>
              <KeyColumns>
                <KeyColumn dwd:design-time-name="2a35b257-31a1-4497-bbd3-d65d93b8c890">
                  <DataType>Integer</DataType>
                  <Source xsi:type="ColumnBinding" dwd:design-time-name="12942331-015e-45c4-ba4c-d9c045a10bd4">
                    <TableID>fact_ORDERLINES</TableID>
                    <ColumnID>CUSTOMER_ID</ColumnID>
                  </Source>
                </KeyColumn>
              </KeyColumns>
              <Type>Granularity</Type>
            </Attribute>
          </Attributes>
        </Dimension>
        <Dimension xsi:type="RegularMeasureGroupDimension" dwd:design-time-name="68a389b3-c356-4735-aacf-6dd21145e949">
          <CubeDimensionID>GENDER</CubeDimensionID>
          <Attributes>
            <Attribute dwd:design-time-name="e85a5f58-2d28-4660-bd5e-62544aebd528">
              <AttributeID>GENDER ID</AttributeID>
              <KeyColumns>
                <KeyColumn dwd:design-time-name="e1f8d615-5993-4aae-9f87-f2f22939befc">
                  <DataType>Integer</DataType>
                  <Source xsi:type="ColumnBinding" dwd:design-time-name="aa4fee79-5259-4632-9dcf-e41800f87360">
                    <TableID>fact_ORDERLINES</TableID>
                    <ColumnID>GENDER_ID</ColumnID>
                  </Source>
                </KeyColumn>
              </KeyColumns>
              <Type>Granularity</Type>
            </Attribute>
          </Attributes>
        </Dimension>
        <Dimension xsi:type="RegularMeasureGroupDimension" dwd:design-time-name="0022695b-b04a-4f9d-b55b-3cef7e371ac9">
          <CubeDimensionID>GEOGRAPHY</CubeDimensionID>
          <Attributes>
            <Attribute dwd:design-time-name="b11f1e72-ba2c-478c-a2e0-c1e5584221d0">
              <AttributeID>GEOGRAPHY ID</AttributeID>
              <KeyColumns>
                <KeyColumn dwd:design-time-name="d226472f-0021-45f3-9710-ca74a457bf5e">
                  <DataType>Integer</DataType>
                  <Source xsi:type="ColumnBinding" dwd:design-time-name="7bcd2792-c308-41b7-896b-a5db61280bb9">
                    <TableID>fact_ORDERLINES</TableID>
                    <ColumnID>GEOGRAPHY_ID</ColumnID>
                  </Source>
                </KeyColumn>
              </KeyColumns>
              <Type>Granularity</Type>
            </Attribute>
          </Attributes>
        </Dimension>
        <Dimension xsi:type="RegularMeasureGroupDimension" dwd:design-time-name="b1ff3073-82e8-48fa-a4bf-1b52edc0ec10">
          <CubeDimensionID>CALENDAR</CubeDimensionID>
          <Attributes>
            <Attribute dwd:design-time-name="8e19bacf-08f2-45a3-b490-cc1933601cf6">
              <AttributeID>DATE ID</AttributeID>
              <KeyColumns>
                <KeyColumn dwd:design-time-name="e590f53b-fbcf-4324-a0f2-f584f8318595">
                  <DataType>Date</DataType>
                  <Source xsi:type="ColumnBinding" dwd:design-time-name="eed42de1-36c6-4ac9-8a9c-4895dee5f74f">
                    <TableID>fact_ORDERLINES</TableID>
                    <ColumnID>DATE_ID</ColumnID>
                  </Source>
                </KeyColumn>
              </KeyColumns>
              <Type>Granularity</Type>
            </Attribute>
          </Attributes>
        </Dimension>
      </Dimensions>
      <Partitions />
    </MeasureGroup>
  </MeasureGroups>
  <Source dwd:design-time-name="5d39caf4-6d1f-4cf5-b434-0fe692972169">
    <DataSourceViewID>DW DS2</DataSourceViewID>
  </Source>
  <MdxScripts>
    <MdxScript dwd:design-time-name="db09eff5-afbf-4527-b9fa-8a83f3d54202">
      <ID>MdxScript</ID>
      <Name>MdxScript</Name>
      <CreatedTimestamp>0001-01-01T00:00:00Z</CreatedTimestamp>
      <LastSchemaUpdate>0001-01-01T00:00:00Z</LastSchemaUpdate>
      <Commands>
        <Command>
          <Text>/*
The CALCULATE command controls the aggregation of leaf cells in the cube.
If the CALCULATE command is deleted or modified, the data within the cube is affected.
You should edit this command only if you manually specify how the cube is aggregated.
*/
CALCULATE; 
CREATE MEMBER CURRENTCUBE.[Measures].[NETAMOUNT AVG BY OPERATION]
 AS [Measures].[NETAMOUNT]/[Measures].[OPERATIONS], 
FORMAT_STRING = "Currency", 
VISIBLE = 1  ; 
CREATE MEMBER CURRENTCUBE.[Measures].[TAX AVG BY OPERATIONS]
 AS [Measures].[TAX]/[Measures].[OPERATIONS], 
FORMAT_STRING = "Currency", 
VISIBLE = 1  ; 
CREATE MEMBER CURRENTCUBE.[Measures].[TOTALAMOUNT AVG BY OPERATIONS]
 AS [Measures].[TOTALAMOUNT]/[Measures].[OPERATIONS], 
FORMAT_STRING = "Currency", 
VISIBLE = 1  ;   
CREATE MEMBER CURRENTCUBE.[Measures].[MEDIAN MONTH TOTALAMOUNT]
 AS MEDIAN( [CALENDAR].[MONTH].CurrentMember.Children, 
  [Measures].[TOTALAMOUNT]), 
FORMAT_STRING = "Currency", 
VISIBLE = 1;  
CREATE MEMBER CURRENTCUBE.[Measures].[MEDIAN CATEGORY TOTALAMOUNT]
 AS MEDIAN([PRODUCT].[CATEGORY].CurrentMember.Children , [Measures].[TOTALAMOUNT] ), 
FORMAT_STRING = "Currency", 
VISIBLE = 1;  
CREATE MEMBER CURRENTCUBE.[Measures].[MEDIAN COUNTRY TOTALAMOUNT]
 AS MEDIAN([CUSTOMER].[COUNTRY].CurrentMember.Children , [Measures].[TOTALAMOUNT] ), 
FORMAT_STRING = "Currency", 
VISIBLE = 1;   
CREATE MEMBER CURRENTCUBE.[Measures].[ROLLING AVG TOTALAMOUNT]
 AS AVG(
        [CALENDAR].[MONTH].CurrentMember : [CALENDAR].[MONTH].CurrentMember.lag(3)
        ,  [Measures].[TOTALAMOUNT] 
), 
FORMAT_STRING = "Currency", 
VISIBLE = 1;   
CREATE MEMBER CURRENTCUBE.[Measures].[ROLLING AVG NETAMOUNT]
 AS AVG(
        [CALENDAR].[MONTH].CurrentMember : [CALENDAR].[MONTH].CurrentMember.lag(3)
        ,  [Measures].[NETAMOUNT] 
), 
FORMAT_STRING = "Currency", 
VISIBLE = 1;   
CREATE MEMBER CURRENTCUBE.[Measures].[ROLLING AVG TAX]
 AS AVG(
        [CALENDAR].[MONTH].CurrentMember : [CALENDAR].[MONTH].CurrentMember.lag(3)
        ,  [Measures].[TAX] 
), 
FORMAT_STRING = "Currency", 
VISIBLE = 1; </Text>
        </Command>
      </Commands>
    </MdxScript>
  </MdxScripts>
</Cube>